…
### Start with the date and time of collection. We will use the lubridate package to standardize all values into the date-time format called POSIXct. This format stores the date and time in number of seconds since a past point (1/1/1970). This makes comparisons easy and helps to standardizes values.

``` r
combined_datetime <- paste(raw_OL_MI_SC$collection_date, raw_OL_MI_SC$collection_time)

#Convert to POSIXct format. Store it into a column named datetime in the data frame. Use the year-month-day hours:minutes:seconds format. 
raw_OL_MI_SC$datetime <- as.POSIXct(combined_datetime, format = "%Y-%m-%d %H:%M:%S")

#Print the new data frame and examine to make sure the new datetime column is in the correct format. 
print(raw_OL_MI_SC)
```

    ## # A tibble: 690 × 10
    ##    lab_sample_id   site_id site_name          latitude longitude collection_date
    ##    <chr>             <dbl> <chr>                 <dbl>     <dbl> <date>         
    ##  1 VM_MI_13_0022_0       8 Oyster Landing Be…     33.5     -79.1 2013-01-22     
    ##  2 VM_MI_13_0022_1       8 Oyster Landing Be…     33.5     -79.1 2013-01-22     
    ##  3 VM_MI_13_0022_2       8 Oyster Landing Be…     33.5     -79.1 2013-01-22     
    ##  4 VM_MI_13_0034_0       8 Oyster Landing Be…     33.5     -79.1 2013-02-12     
    ##  5 VM_MI_13_0034_1       8 Oyster Landing Be…     33.5     -79.1 2013-02-12     
    ##  6 VM_MI_13_0034_2       8 Oyster Landing Be…     33.5     -79.1 2013-02-12     
    ##  7 VM_MI_13_0042_0       8 Oyster Landing Be…     33.5     -79.1 2013-02-27     
    ##  8 VM_MI_13_0042_1       8 Oyster Landing Be…     33.5     -79.1 2013-02-27     
    ##  9 VM_MI_13_0042_2       8 Oyster Landing Be…     33.5     -79.1 2013-02-27     
    ## 10 VM_MI_13_0049_0       8 Oyster Landing Be…     33.5     -79.1 2013-03-12     
    ## # ℹ 680 more rows
    ## # ℹ 4 more variables: collection_time <time>, salinity_ppt <dbl>,
    ## #   temp_do <dbl>, datetime <dttm>
…
    ## `summarise()` has grouped output by 'year'. You can override using the
    ## `.groups` argument.

``` r
print(OL_MI_SC_envrmonth)
```

    ## # A tibble: 119 × 10
    ## # Groups:   year [10]
    ##     year month min_salinity max_salinity mean_salinity length_salinity min_temp
    ##    <dbl> <dbl>        <dbl>        <dbl>         <dbl>           <int>    <dbl>
    ##  1  2013     1         34.2         34.3          34.2               3      9.7
    ##  2  2013     2         33.9         34.2          34.0               6     10.8
    ##  3  2013     3         32.4         33.9          33.2               6     10.1
    ##  4  2013     4         33.4         33.6          33.5               6     15.4
    ##  5  2013     5         34.9         35            35.0               6     18.5
    ##  6  2013     6         33.1         34.4          33.8               6     26.3
    ##  7  2013     7         33.6         34.1          33.8               6     26.1
    ##  8  2013     8         34.3         35            34.6               6     25.3
    ##  9  2013     9         34           34.1          34.0               6     23.1
    ## 10  2013    10         34.1         34.7          34.2               6     21.1
    ## # ℹ 109 more rows
    ## # ℹ 3 more variables: max_temp <dbl>, mean_temp <dbl>, length_temp <int>
…
