…
    ## `summarise()` has grouped output by 'year'. You can override using the
    ## `.groups` argument.

``` r
print(AL1_envrmonth)
```

    ## # A tibble: 191 × 10
    ## # Groups:   year [19]
    ##     year month min_salinity max_salinity mean_salinity length_salinity min_temp
    ##    <dbl> <dbl>        <dbl>        <dbl>         <dbl>           <int>    <dbl>
    ##  1  2005     8         17.2         23            20.1             987     26  
    ##  2  2005     9         20           26.9          23.0             609     27.2
    ##  3  2005    10         21.2         30.2          26.3            1488     14.5
    ##  4  2005    11         27.8         32.1          29.5            1440     10.8
    ##  5  2005    12         27.1         31            29.3            1487      7.7
    ##  6  2006     1         19.5         31.2          27.7            1488      9.9
    ##  7  2006     2         11.5         27.5          21.1            1344      8.2
    ##  8  2006     3          9.6         27.1          19.1            1467     11.8
    ##  9  2006     4         15.3         23.5          20.0            1438     19.5
    ## 10  2006     5         16.7         30.6          22.3            1488     21.8
    ## # ℹ 181 more rows
    ## # ℹ 3 more variables: max_temp <dbl>, mean_temp <dbl>, length_temp <int>
…
