…
    ## `summarise()` has grouped output by 'year'. You can override using the
    ## `.groups` argument.

``` r
print(CN1_envrmonth_sal)
```

    ## # A tibble: 25 × 6
    ## # Groups:   year [3]
    ##     year month min_salinity max_salinity mean_salinity length_salinity
    ##    <dbl> <dbl>        <dbl>        <dbl>         <dbl>           <int>
    ##  1  2020     6         31.7         32.5          32.2            1197
    ##  2  2020     7         29.6         32.5          31.3            4464
    ##  3  2020     8         29.1         29.9          29.3            4464
    ##  4  2020     9         28.3         29.7          29.1            4320
    ##  5  2020    10         26.3         29.3          28.8            4464
    ##  6  2020    11         26.3         28.4          27.3            4320
    ##  7  2020    12         24.6         27.5          25.9            4464
    ##  8  2021     1         24.5         26.8          25.5            4464
    ##  9  2021     2         24.2         26.7          25.0            4032
    ## 10  2021     3         25.7         28.4          27.4            4458
    ## # ℹ 15 more rows
…
