…
    ## `summarise()` has grouped output by 'year'. You can override using the
    ## `.groups` argument.

``` r
print(CN3_envrmonth_sal)
```

    ## # A tibble: 31 × 6
    ## # Groups:   year [25]
    ##     year month min_salinity max_salinity mean_salinity length_salinity
    ##    <dbl> <dbl>        <dbl>        <dbl>         <dbl>           <int>
    ##  1  1986     5        15.2         23.5          19.3                3
    ##  2  1986     6         6.2         28.3          20.7                6
    ##  3  1986     7        18.8         24.7          22.1                4
    ##  4  1986     8         5.3         21            14.3                4
    ##  5  1987     5         0.02         0.02          0.02               2
    ##  6  1987     6         0.02         0.02          0.02               2
    ##  7  1987     7         0.02         0.02          0.02               4
    ##  8  1987     8         0.02         0.02          0.02               2
    ##  9  1998     7        23.4         28.6          26.1               12
    ## 10  1999     8        24.1         26.5          25.9                6
    ## # ℹ 21 more rows

``` r
print(CN3_envrmonth_temp)
```

    ## # A tibble: 68 × 6
    ## # Groups:   year [26]
    ##     year month min_temp max_temp mean_temp length_temp
    ##    <dbl> <dbl>    <dbl>    <dbl>     <dbl>       <int>
    ##  1  1986     5     13.8     16.9      15.8           3
    ##  2  1986     6     13       20.1      17.7           6
    ##  3  1986     7     18.8     21.1      20.1           4
    ##  4  1986     8     24.3     24.7      24.6           4
    ##  5  1998     7     21.5     24.1      23.2          12
    ##  6  1999     8     22.4     26        23.7           6
    ##  7  2000     8     20.8     22.2      21.8           8
    ##  8  2001     8     22.3     23.5      22.8           8
    ##  9  2002     8     20.3     21.7      21.0           8
    ## 10  2003     8     18.3     21        19.4           8
    ## # ℹ 58 more rows
…
CN3_envryear_temp <- CN3_temp %>%
    mutate(year = year(datetime)) %>%
    group_by(year) %>%
    summarise(
      min_temp = min(temp),
      max_temp = max(temp),
      mean_temp = mean(temp))

print(CN3_envryear_sal)
```

    ## # A tibble: 25 × 4
    ##     year min_salinity max_salinity mean_salinity
    ##    <dbl>        <dbl>        <dbl>         <dbl>
    ##  1  1986         5.3         28.3          19.3 
    ##  2  1987         0.02         0.02          0.02
    ##  3  1998        23.4         28.6          26.1 
    ##  4  1999        24.1         26.5          25.9 
    ##  5  2000        10.8         28.6          24.9 
    ##  6  2001        19.1         31.1          28.4 
    ##  7  2002        23.4         29.5          28.1 
    ##  8  2003         6.5         29.2          24.6 
    ##  9  2004        26.6         30.7          29.3 
    ## 10  2005        21.5         28.7          26.7 
    ## # ℹ 15 more rows

``` r
print(CN3_envryear_temp)
```

    ## # A tibble: 26 × 4
    ##     year min_temp max_temp mean_temp
    ##    <dbl>    <dbl>    <dbl>     <dbl>
    ##  1  1986     13       24.7      19.5
    ##  2  1998     21.5     24.1      23.2
    ##  3  1999     22.4     26        23.7
    ##  4  2000     20.8     22.2      21.8
    ##  5  2001     22.3     23.5      22.8
    ##  6  2002     20.3     21.7      21.0
    ##  7  2003     18.3     21        19.4
    ##  8  2004     21.6     22.9      22.4
    ##  9  2005     19.1     20.8      20.0
    ## 10  2006     17.8     23.2      20.2
    ## # ℹ 16 more rows
…
