…
    ## `summarise()` has grouped output by 'year'. You can override using the
    ## `.groups` argument.

``` r
print(CT1_envrmonth)
```

    ## # A tibble: 24 × 10
    ## # Groups:   year [4]
    ##     year month min_salinity max_salinity mean_salinity length_salinity min_temp
    ##    <dbl> <dbl>        <dbl>        <dbl>         <dbl>           <int>    <dbl>
    ##  1  2020     6          2             26         18.3             2426     12.8
    ##  2  2020     7          1.6           27         18.7             2966     18.9
    ##  3  2020     8          5.6           28         21.2             2965     21.8
    ##  4  2020     9          9.4           28         22.0             2865     18.2
    ##  5  2020    10         11             28         21.3               57     20.3
    ##  6  2021     6          0.2           27         16.1             2793     13.3
    ##  7  2021     7          0.1           27          8.27            2967     19.7
    ##  8  2021     8          0.2           27         13.5             2965     21.9
    ##  9  2021     9          0.1           26          9.19            2871     19.3
    ## 10  2021    10          0.5           26         12.2              463     18.5
    ## # ℹ 14 more rows
    ## # ℹ 3 more variables: max_temp <dbl>, mean_temp <dbl>, length_temp <int>
…
