…
    ## `summarise()` has grouped output by 'year'. You can override using the
    ## `.groups` argument.

``` r
print(FL1_envrmonth)
```

    ## # A tibble: 251 × 10
    ## # Groups:   year [23]
    ##     year month min_salinity max_salinity mean_salinity length_salinity min_temp
    ##    <dbl> <dbl>        <dbl>        <dbl>         <dbl>           <int>    <dbl>
    ##  1  2002     1          7.9         33.4          21.8            1487      5.5
    ##  2  2002     2          8.6         28.7          18.4            1343     10.4
    ##  3  2002     3          9.7         30.4          16.6             817      6.5
    ##  4  2002     4          9.9         34.7          20.5            1437     18.7
    ##  5  2002     5         14.6         35.1          25.1            1485     20.5
    ##  6  2002     6         14.5         33.8          26.0            1439     26.1
    ##  7  2002     7         18.7         35            28.6             815     28.9
    ##  8  2002     8         13           33.7          23.1            1486     26.7
    ##  9  2002     9         14.2         29.8          22.8            1439     25.5
    ## 10  2002    10         14           27            20.6            1487     21.1
    ## # ℹ 241 more rows
    ## # ℹ 3 more variables: max_temp <dbl>, mean_temp <dbl>, length_temp <int>
…
print(FL1_envryear)
```

    ## # A tibble: 23 × 7
    ##     year min_salinity max_salinity mean_salinity min_temp max_temp mean_temp
    ##    <dbl>        <dbl>        <dbl>         <dbl>    <dbl>    <dbl>     <dbl>
    ##  1  2002          5.9         35.1          21.4      5.5     33.5      22.7
    ##  2  2003          1.2         33.9          16.3      7       32        22.6
    ##  3  2004          2.7         34.7          20.3      7.7     33        22.6
    ##  4  2005          0.1         33.1          16.8      8.9     33.2      22.2
    ##  5  2006          3           35.8          23.7      7.7     32.8      22.5
    ##  6  2007          4.3         37            25.3      8.6     33        23.3
    ##  7  2008          1.2         36.5          23.1      4.6     32.6      22.1
    ##  8  2009          0.1         38.8          20.6      5.8     32.8      22.3
    ##  9  2010          0.1         35.8          21.0      2.8     34.5      21.5
    ## 10  2011          6           37.9          25.2      5.8     34.2      22.7
    ## # ℹ 13 more rows
…
