…
    ## `summarise()` has grouped output by 'year'. You can override using the
    ## `.groups` argument.

``` r
print(FL2_envrmonth)
```

    ## # A tibble: 262 × 10
    ## # Groups:   year [23]
    ##     year month min_salinity max_salinity mean_salinity length_salinity min_temp
    ##    <dbl> <dbl>        <dbl>        <dbl>         <dbl>           <int>    <dbl>
    ##  1  2002     1         14.7         31.3          23.3            1418      7.5
    ##  2  2002     2          9.4         31.3          20.6            1339     12.1
    ##  3  2002     3          8.5         32.4          21.8            1469      9.9
    ##  4  2002     4          6.9         33.7          23.9            1437     18.9
    ##  5  2002     5         13.1         35.8          28.8            1487     21.2
    ##  6  2002     6         16.6         35.1          28.2            1438     26.6
    ##  7  2002     7         14.8         33.3          23.4            1486     28.4
    ##  8  2002     8         17.2         33.8          26.4            1486     27.4
    ##  9  2002     9         13.7         29.2          26.5            1438     25.2
    ## 10  2002    10         17.8         29.3          25.9             763     23.9
    ## # ℹ 252 more rows
    ## # ℹ 3 more variables: max_temp <dbl>, mean_temp <dbl>, length_temp <int>
…
print(FL2_envryear)
```

    ## # A tibble: 23 × 7
    ##     year min_salinity max_salinity mean_salinity min_temp max_temp mean_temp
    ##    <dbl>        <dbl>        <dbl>         <dbl>    <dbl>    <dbl>     <dbl>
    ##  1  2002          5.1         35.8          23.7      7.5     32.5      22.9
    ##  2  2003          0.5         30.7          15.9      7.9     31.5      22.2
    ##  3  2004          3.4         32.5          20.9      8.4     33.1      22.6
    ##  4  2005          0.1         33.1          17.6      9.5     32.4      22.4
    ##  5  2006          1.7         33.9          21.9     10.2     32.7      22.6
    ##  6  2007          6           37.9          27.2     10.2     32.8      22.8
    ##  7  2008          0.7         36.5          22.9      7.5     32.1      21.9
    ##  8  2009          0.1         36.7          20.2      8.5     33        22.5
    ##  9  2010          0.1         35.2          19.7      5.9     33.5      22.5
    ## 10  2011          3.5         37.9          24.6      6.7     34.2      22.7
    ## # ℹ 13 more rows
…
