…
    ## `summarise()` has grouped output by 'year'. You can override using the
    ## `.groups` argument.

``` r
print(FL3_envrmonth_sal)
```

    ## # A tibble: 187 × 6
    ## # Groups:   year [20]
    ##     year month min_salinity max_salinity mean_salinity length_salinity
    ##    <dbl> <dbl>        <dbl>        <dbl>         <dbl>           <int>
    ##  1  2005     6        19.3          34.7          31.4             407
    ##  2  2005     7        12.0          36.3          25.0            1482
    ##  3  2005     8        16.8          36.7          29.6            1487
    ##  4  2005     9        18.6          35.5          29.9            1440
    ##  5  2005    10        12.0          33.9          27.0            1488
    ##  6  2005    11         9.77         35.2          26.2             815
    ##  7  2005    12         6.37         35.7          26.5            1488
    ##  8  2006     1        12.5          33.9          28.8            1488
    ##  9  2006     2        15.7          33.4          27.7            1344
    ## 10  2006     3        20.5          34.3          31.2            1488
    ## # ℹ 177 more rows

``` r
print(FL3_envrmonth_temp)
```

    ## # A tibble: 191 × 6
    ## # Groups:   year [20]
    ##     year month min_temp max_temp mean_temp length_temp
    ##    <dbl> <dbl>    <dbl>    <dbl>     <dbl>       <int>
    ##  1  2005     6     27.2     29.8      28.3         407
    ##  2  2005     7     27.2     32.1      29.5        1482
    ##  3  2005     8     28.6     32.4      30.2        1487
    ##  4  2005     9     25.8     31.3      28.1        1440
    ##  5  2005    10     18.1     29.5      25.1        1488
    ##  6  2005    11     15.2     23.4      19.0         815
    ##  7  2005    12     11.4     18.7      15.0        1488
    ##  8  2006     1     11.8     18.2      15.3        1488
    ##  9  2006     2     10.9     17.9      14.8        1344
    ## 10  2006     3     14.2     21.2      17.5        1488
    ## # ℹ 181 more rows
…
