…
    ## `summarise()` has grouped output by 'year'. You can override using the
    ## `.groups` argument.

``` r
print(GA1_envrmonth)
```

    ## # A tibble: 283 × 10
    ## # Groups:   year [25]
    ##     year month min_salinity max_salinity mean_salinity length_salinity min_temp
    ##    <dbl> <dbl>        <dbl>        <dbl>         <dbl>           <int>    <dbl>
    ##  1  1999     1         21.1         35            27.8            1486      9.3
    ##  2  1999     2         15.8         34.9          25.7            1341     12.1
    ##  3  1999     3         19.5         32.2          24.7            1485     13.3
    ##  4  1999     4         20.2         32.9          26.2            1435     18.4
    ##  5  1999     5          0.2         34.6          28.8            1487     16.7
    ##  6  1999     6         25.4         31.4          27.7            1439     25.4
    ##  7  1999     7         22.6         29.7          26.2            1486     26.2
    ##  8  1999     8         22.5         34.4          27.4            1268     27.9
    ##  9  1999     9         24           34.3          29.2            1341     23.4
    ## 10  1999    10         23.4         28.1          25.5            1073     21.3
    ## # ℹ 273 more rows
    ## # ℹ 3 more variables: max_temp <dbl>, mean_temp <dbl>, length_temp <int>
…
print(GA1_envryear)
```

    ## # A tibble: 25 × 7
    ##     year min_salinity max_salinity mean_salinity min_temp max_temp mean_temp
    ##    <dbl>        <dbl>        <dbl>         <dbl>    <dbl>    <dbl>     <dbl>
    ##  1  1999          0.1         35            26.7      9.3     33.1      21.6
    ##  2  2000          0.1         36.7          27.9      6.6     31.1      21.3
    ##  3  2001          7.8         41.1          29.0      7.1     31.1      21.8
    ##  4  2002          4.6         34.4          27.8      8       31.5      20.3
    ##  5  2003          0.1         34.3          24.7      7.6     31.1      21.0
    ##  6  2004          8.5         36.6          26.4      7.9     31.3      21.0
    ##  7  2005          4.1         34.8          24.3      7.8     32.4      21.3
    ##  8  2006         13.9         35.3          29.0      9.5     32.4      21.4
    ##  9  2007         13.5         36.3          29.1      9.7     39        20.8
    ## 10  2008         13           35.5          28.7      6.6     30.9      21.3
    ## # ℹ 15 more rows
…
