…
    ## `summarise()` has grouped output by 'year'. You can override using the
    ## `.groups` argument.

``` r
print(GA2_envrmonth)
```

    ## # A tibble: 178 × 10
    ## # Groups:   year [16]
    ##     year month min_salinity max_salinity mean_salinity length_salinity min_temp
    ##    <dbl> <dbl>        <dbl>        <dbl>         <dbl>           <int>    <dbl>
    ##  1  2007    10           25           30          27.4            2854     18.4
    ##  2  2007    11           28           32          30.7            1820     14.5
    ##  3  2007    12           30           32          31.3            2871     12.6
    ##  4  2008     1           25           31          28.3            2679      9  
    ##  5  2008     2           18           26          23.0            2592     11.3
    ##  6  2008     3           16           24          18.6            2782     13.6
    ##  7  2008     4           20           25          22.1            2880     16.4
    ##  8  2008     5           21           27          25.0            2755     20.8
    ##  9  2008     6           26           30          28.2            2708     26.7
    ## 10  2008     7           28           32          30.1            2570     27.5
    ## # ℹ 168 more rows
    ## # ℹ 3 more variables: max_temp <dbl>, mean_temp <dbl>, length_temp <int>
…
