…
    ## `summarise()` has grouped output by 'year'. You can override using the
    ## `.groups` argument.

``` r
print(GA3_envrmonth_sal)
```

    ## # A tibble: 21 × 6
    ## # Groups:   year [3]
    ##     year month min_salinity max_salinity mean_salinity length_salinity
    ##    <dbl> <dbl>        <dbl>        <dbl>         <dbl>           <int>
    ##  1  2013     7     13.9             23.9          17.5            1518
    ##  2  2013     8      0.279           28.0          21.1           16107
    ##  3  2013     9      0.017           28.3          23.3           18179
    ##  4  2013    10      0.0245          30.2          26.2           18811
    ##  5  2013    11      0.0188          30.4          28.0           17222
    ##  6  2013    12      0.00773         31.4          27.1           17797
    ##  7  2014     1      0.00774         30.5          24.3           18196
    ##  8  2014     2      0.00773         28.2          22.1           16485
    ##  9  2014     3      0.00782         29.8          25.3           19675
    ## 10  2014     4      0.0320          28.9          24.4           11620
    ## # ℹ 11 more rows

``` r
print(GA3_envrmonth_temp)
```

    ## # A tibble: 21 × 6
    ## # Groups:   year [3]
    ##     year month min_temp max_temp mean_temp length_temp
    ##    <dbl> <dbl>    <dbl>    <dbl>     <dbl>       <int>
    ##  1  2013     7    28.5      31.3      29.8        1518
    ##  2  2013     8    21.2      34.8      29.6       16107
    ##  3  2013     9    19.3      34.3      27.9       18179
    ##  4  2013    10    11.9      29.5      23.2       18811
    ##  5  2013    11    10.0      24.2      17.0       17222
    ##  6  2013    12     9.19     25.1      14.6       17797
    ##  7  2014     1     3.66     17.1      10.0       18196
    ##  8  2014     2     6.92     25.8      12.1       16485
    ##  9  2014     3     5.42     28.1      14.4       19675
    ## 10  2014     4    14.2      26.1      20.1       11620
    ## # ℹ 11 more rows
…
