…
    ## `summarise()` has grouped output by 'year'. You can override using the
    ## `.groups` argument.

``` r
print(GA4_envrmonth_sal)
```

    ## # A tibble: 179 × 6
    ## # Groups:   year [18]
    ##     year month min_salinity max_salinity mean_salinity length_salinity
    ##    <dbl> <dbl>        <dbl>        <dbl>         <dbl>           <int>
    ##  1  2006     9         17.8         31.6          24.7             566
    ##  2  2006    10         18.5         31.3          25.2            1418
    ##  3  2006    11         18.6         31.9          25.2            1440
    ##  4  2006    12         15.1         30.8          23.7            1488
    ##  5  2007     1         12.9         29.9          21.4            1485
    ##  6  2007     2         12.8         29.2          21.5             849
    ##  7  2007     3         10.9         30.0          20.1            1486
    ##  8  2007     4         15.5         32.2          23.8            1435
    ##  9  2007     5         20.0         32.2          25.4             790
    ## 10  2007     6         16.5         31.7          23.2             788
    ## # ℹ 169 more rows

``` r
print(GA4_envrmonth_temp)
```

    ## # A tibble: 180 × 6
    ## # Groups:   year [18]
    ##     year month min_temp max_temp mean_temp length_temp
    ##    <dbl> <dbl>    <dbl>    <dbl>     <dbl>       <int>
    ##  1  2006     9    26.1      28.1      27.1         566
    ##  2  2006    10    17.2      26.9      22.1        1418
    ##  3  2006    11    12.1      20.4      16.0        1440
    ##  4  2006    12    11        18.1      13.6        1488
    ##  5  2007     1     9.32     16.7      12.9        1485
    ##  6  2007     2     9.48     14.9      11.7         849
    ##  7  2007     3    12.7      21.5      16.9        1486
    ##  8  2007     4    16.0      24.1      19.8        1435
    ##  9  2007     5    20.1      25.3      23.1         790
    ## 10  2007     6    25.6      30.6      28.1         788
    ## # ℹ 170 more rows
…
