…
    ## `summarise()` has grouped output by 'year'. You can override using the
    ## `.groups` argument.

``` r
print(LA1_envrmonth_sal)
```

    ## # A tibble: 316 × 6
    ## # Groups:   year [32]
    ##     year month min_salinity max_salinity mean_salinity length_salinity
    ##    <dbl> <dbl>        <dbl>        <dbl>         <dbl>           <int>
    ##  1  1990     5        0.193         17.8          4.59             228
    ##  2  1990     6        0.145         26.4          6.13             387
    ##  3  1990     7        1.29          24.6         12.2              472
    ##  4  1990     8        6.42          26.1         17.3              312
    ##  5  1990     9        8.59          24.1         15.9              164
    ##  6  1990    10       10.0           26.6         18.6              446
    ##  7  1990    11       11.1           29.0         20.4              466
    ##  8  1990    12       10.2           28.6         19.1              415
    ##  9  1991     1        3.43          19.7          6.06              72
    ## 10  1991     2        0.193         22.2          3.76             195
    ## # ℹ 306 more rows

``` r
print(LA1_envrmonth_temp)
```

    ## # A tibble: 318 × 6
    ## # Groups:   year [32]
    ##     year month min_temp max_temp mean_temp length_temp
    ##    <dbl> <dbl>    <dbl>    <dbl>     <dbl>       <int>
    ##  1  1990     5    25.9      28.6      27.3         233
    ##  2  1990     6    26.7      32.4      29.4         396
    ##  3  1990     7    27.2      32.4      30.1         448
    ##  4  1990     8    28.6      32.7      30.4         467
    ##  5  1990     9    24.2      31.1      28.9         453
    ##  6  1990    10    18.2      28.7      23.3         431
    ##  7  1990    11    14.4      22.2      19.1         452
    ##  8  1990    12     7.73     18.8      15.1         387
    ##  9  1991     1    10.4      12.5      11.5          63
    ## 10  1991     2    12.2      17.4      14.4         203
    ## # ℹ 308 more rows
…
LA1_envryear_temp <- LA1_temp %>%
    mutate(year = year(datetime)) %>%
    group_by(year) %>%
    summarise(
      min_temp = min(temp),
      max_temp = max(temp),
      mean_temp = mean(temp))

print(LA1_envryear_sal)
```

    ## # A tibble: 32 × 4
    ##     year min_salinity max_salinity mean_salinity
    ##    <dbl>        <dbl>        <dbl>         <dbl>
    ##  1  1990        0.145         29.0         14.8 
    ##  2  1991        0.012         30.5          9.21
    ##  3  1992        0.145         30.2         13.6 
    ##  4  1993        0.012         32.1         11.9 
    ##  5  1994        0.097         29.3         10.2 
    ##  6  1995        0.012         35.9         10.0 
    ##  7  1996        3.43          36.0         20.8 
    ##  8  1997        0.104         34.6         11.0 
    ##  9  1998        0.077         29.5         11.7 
    ## 10  1999        0.086         30.5         10.3 
    ## # ℹ 22 more rows

``` r
print(LA1_envryear_temp)
```

    ## # A tibble: 32 × 4
    ##     year min_temp max_temp mean_temp
    ##    <dbl>    <dbl>    <dbl>     <dbl>
    ##  1  1990     7.73     32.7      25.5
    ##  2  1991     9.88     32.0      21.4
    ##  3  1992     7.81     31.8      21.9
    ##  4  1993     8.24     33.1      20.6
    ##  5  1994     8.07     31.8      21.0
    ##  6  1995     7.77     32.7      20.7
    ##  7  1996     0        31.0      20.1
    ##  8  1997     4.11     33.0      22.4
    ##  9  1998     7.02     32.9      23.9
    ## 10  1999     9.67     33.3      23.7
    ## # ℹ 22 more rows
…
