…
    ## `summarise()` has grouped output by 'year'. You can override using the
    ## `.groups` argument.

``` r
print(LA2_envrmonth)
```

    ## # A tibble: 172 × 10
    ## # Groups:   year [16]
    ##     year month min_salinity max_salinity mean_salinity length_salinity min_temp
    ##    <dbl> <dbl>        <dbl>        <dbl>         <dbl>           <int>    <dbl>
    ##  1  2007    10         12             27          19.4             738     17.4
    ##  2  2007    11         16             26          21.3             630     12.7
    ##  3  2007    12         17             27          23.5             618     11.3
    ##  4  2008     1          9.9           28          20.3             600      6.9
    ##  5  2008     2          5.2           25          15.6             696      9.5
    ##  6  2008     3          7.4           24          16.8             744     12.5
    ##  7  2008     4          6.5           24          13.7             720     16.8
    ##  8  2008     5          7.4           21          12.6             744     22.1
    ##  9  2008     6          4.4           21          12.3             720     28.4
    ## 10  2008     7         13             26          18.3             384     29.1
    ## # ℹ 162 more rows
    ## # ℹ 3 more variables: max_temp <dbl>, mean_temp <dbl>, length_temp <int>
…
