…
    ## `summarise()` has grouped output by 'year'. You can override using the
    ## `.groups` argument.

``` r
print(LA3_envrmonth)
```

    ## # A tibble: 154 × 10
    ## # Groups:   year [15]
    ##     year month min_salinity max_salinity mean_salinity length_salinity min_temp
    ##    <dbl> <dbl>        <dbl>        <dbl>         <dbl>           <int>    <dbl>
    ##  1  2007    10          2.1          7.5         3.69              738     16.1
    ##  2  2007    11          3.4          7.2         5.88              720     12.8
    ##  3  2007    12          1.8          6.3         5.09              720     10.7
    ##  4  2008     1          1            5.5         3.79              744      5.9
    ##  5  2008     2          0.4          3.3         2.10              672      9.8
    ##  6  2008     3          0.2          2.7         1.10              744     10.1
    ##  7  2008     4          0.2          1.6         0.914             720     16.4
    ##  8  2008     5          0.2          1.3         0.831             624     22  
    ##  9  2008     6          0.2          1.6         1.02              727     27.2
    ## 10  2008     7          0.2          2.3         1.06              744     27.7
    ## # ℹ 144 more rows
    ## # ℹ 3 more variables: max_temp <dbl>, mean_temp <dbl>, length_temp <int>
…
