…
## `summarise()` has grouped output by 'year'. You can override using the `.groups` argument.

print(LA4_envrmonth)

## # A tibble: 178 × 10
## # Groups:   year [16]
##     year month min_salinity max_salinity mean_salinity length_salinity min_temp max_temp mean_temp
##    <dbl> <dbl>        <dbl>        <dbl>         <dbl>           <int>    <dbl>    <dbl>     <dbl>
##  1  2007    10          8.1           25         16.5              570     15.7     28.8      23.6
##  2  2007    11         10             24         15.6              719     13.2     23.2      19.0
##  3  2007    12          7.2           20         15.8              461     11       23.8      18.0
##  4  2008     1          2.8           18         12.3              498      6.9     18.4      12.2
##  5  2008     2          1.2           23         11.6              696     11.4     21.9      17.2
##  6  2008     3          2.8           26         10.5              739     11.2     24.6      18.6
##  7  2008     4          2.2           21         11.3              715     16       27.8      23.4
##  8  2008     5          0.6           13          5.02             744     22.1     31        26.4
##  9  2008     6          1             12          4.90             720     28.1     32.2      30.0
## 10  2008     7          0.6           12          5.03             744     28.2     32.8      30.5
## # ℹ 168 more rows
## # ℹ 1 more variable: length_temp <int>
…
