…
    ## `summarise()` has grouped output by 'year'. You can override using the
    ## `.groups` argument.

``` r
print(LA5_envrmonth)
```

    ## # A tibble: 164 × 10
    ## # Groups:   year [15]
    ##     year month min_salinity max_salinity mean_salinity length_salinity min_temp
    ##    <dbl> <dbl>        <dbl>        <dbl>         <dbl>           <int>    <dbl>
    ##  1  2007    10          3.3         25           15.9              737     16.7
    ##  2  2007    11          5.9         22           13.2              720     13.5
    ##  3  2007    12          4.7         25           15.7              743     11.8
    ##  4  2008     1          1.4         23            8.77             744      5  
    ##  5  2008     2          0.4         14            3.33             695     11.8
    ##  6  2008     3          0.4         16            4.41             744     12  
    ##  7  2008     4          0.6         11            6.12             720     16.6
    ##  8  2008     5          0.5         12            3.50             744     22.5
    ##  9  2008     6          0.8          8.3          3.62             719     27.8
    ## 10  2008     7          0.3         12            4.14             744     28.5
    ## # ℹ 154 more rows
    ## # ℹ 3 more variables: max_temp <dbl>, mean_temp <dbl>, length_temp <int>
…
