…
    ## `summarise()` has grouped output by 'year'. You can override using the `.groups` argument.

``` r
print(MA1_envrmonth_sal)
```

    ## # A tibble: 67 × 6
    ## # Groups:   year [7]
    ##     year month min_salinity max_salinity mean_salinity length_salinity
    ##    <dbl> <dbl>        <dbl>        <dbl>         <dbl>           <int>
    ##  1  2014     1         9.22         29.8          22.6             364
    ##  2  2014     2        10.2          28.4          22.1             358
    ##  3  2014     3         9.4          27.9          23.2             308
    ##  4  2014     4        16.3          26.6          23.6             214
    ##  5  2014     5        14.5          24.8          21.6             173
    ##  6  2014     6        11.4          24.7          20.5             187
    ##  7  2014     7        13.0          25.1          20.7             141
    ##  8  2014     8        16.9          26.7          22.4             123
    ##  9  2014     9        13.6          27.5          21.2             177
    ## 10  2014    10        14.1          28.0          22.3             164
    ## # ℹ 57 more rows

``` r
print(MA1_envrmonth_temp)
```

    ## # A tibble: 67 × 6
    ## # Groups:   year [7]
    ##     year month min_temp max_temp mean_temp length_temp
    ##    <dbl> <dbl>    <dbl>    <dbl>     <dbl>       <int>
    ##  1  2014     1     9.4      24.9      18.4         364
    ##  2  2014     2     6.99     26.1      17.7         358
    ##  3  2014     3     5.46     26.5      19.4         308
    ##  4  2014     4    14.3      26.1      20.2         214
    ##  5  2014     5    14.8      24.9      19.1         173
    ##  6  2014     6    14.2      24.4      18.9         187
    ##  7  2014     7    14.6      23.8      17.7         141
    ##  8  2014     8    15.6      25.9      18.5         123
    ##  9  2014     9    15.4      26.1      20.7         177
    ## 10  2014    10    14.6      25.9      19.7         164
    ## # ℹ 57 more rows
…
