…
    ## `summarise()` has grouped output by 'year'. You can override using the
    ## `.groups` argument.

``` r
print(MD1_envrmonth_sal)
```

    ## # A tibble: 435 × 6
    ## # Groups:   year [37]
    ##     year month min_salinity max_salinity mean_salinity length_salinity
    ##    <dbl> <dbl>        <dbl>        <dbl>         <dbl>           <int>
    ##  1  1986     1         7.87         9.78          8.93               5
    ##  2  1986     3         6.31        11.3           9.09               5
    ##  3  1986     4         5.63         9.77          7.03              10
    ##  4  1986     5         7.43         9.4           8.49              10
    ##  5  1986     6         6           11.0           9.18              10
    ##  6  1986     7         9.4         12.7          11.0               10
    ##  7  1986     8         9.85        12.5          10.9                9
    ##  8  1986     9        10.4         13.3          11.6               10
    ##  9  1986    10        11.0         14.5          12.3               10
    ## 10  1986    11        10.5         13.5          12.3                5
    ## # ℹ 425 more rows

``` r
print(MD1_envrmonth_temp)
```

    ## # A tibble: 435 × 6
    ## # Groups:   year [37]
    ##     year month min_temp max_temp mean_temp length_temp
    ##    <dbl> <dbl>    <dbl>    <dbl>     <dbl>       <int>
    ##  1  1986     1      3        4        3.64           5
    ##  2  1986     3      2.5      2.6      2.54           5
    ##  3  1986     4      9.9     14.1     11.7           10
    ##  4  1986     5     15.4     20.1     17.8           10
    ##  5  1986     6     19.1     25.6     22.4           10
    ##  6  1986     7     25.2     28.5     27.2           10
    ##  7  1986     8     24.8     27.7     26.2            9
    ##  8  1986     9     22.5     23       22.8           10
    ##  9  1986    10     16.5     19.6     18.2           10
    ## 10  1986    11      9.2      9.7      9.58           5
    ## # ℹ 425 more rows
…
MD1_envryear_temp <- MD1_temp %>%
    mutate(year = year(datetime)) %>%
    group_by(year) %>%
    summarise(
      min_temp = min(temp),
      max_temp = max(temp),
      mean_temp = mean(temp))

print(MD1_envryear_sal)
```

    ## # A tibble: 37 × 4
    ##     year min_salinity max_salinity mean_salinity
    ##    <dbl>        <dbl>        <dbl>         <dbl>
    ##  1  1986         5.63         14.5         10.2 
    ##  2  1987         0.27         15            8.97
    ##  3  1988         0            13.9          8.44
    ##  4  1989         0.41         14.4          7.53
    ##  5  1990         2.58         11.7          6.80
    ##  6  1991         1.38         14.0          8.55
    ##  7  1992         3.01         14.7          9.58
    ##  8  1993         0            12.7          6.60
    ##  9  1994         0            11.8          5.39
    ## 10  1995         3.48         15.7          9.45
    ## # ℹ 27 more rows

``` r
print(MD1_envryear_temp)
```

    ## # A tibble: 37 × 4
    ##     year min_temp max_temp mean_temp
    ##    <dbl>    <dbl>    <dbl>     <dbl>
    ##  1  1986      2.5     28.5      17.5
    ##  2  1987      2.6     29.9      16.3
    ##  3  1988      2.6     29.3      18.9
    ##  4  1989      3.8     28.2      16.9
    ##  5  1990      1.8     27.6      15.8
    ##  6  1991      4.5     29.5      19.0
    ##  7  1992      2.8     27        16.5
    ##  8  1993      3.6     28.9      17.4
    ##  9  1994      3.2     28.2      18.1
    ## 10  1995      2.7     29.2      17.3
    ## # ℹ 27 more rows
…
