…
    ## `summarise()` has grouped output by 'year'. You can override using the
    ## `.groups` argument.

``` r
print(ME1_envrmonth_sal)
```

    ## # A tibble: 26 × 6
    ## # Groups:   year [4]
    ##     year month min_salinity max_salinity mean_salinity length_salinity
    ##    <dbl> <dbl>        <dbl>        <dbl>         <dbl>           <int>
    ##  1  2015     9        30.2          31.8          31.6             110
    ##  2  2015    10        30.1          31.9          30.8             334
    ##  3  2015    11        29.7          31.8          31.1             575
    ##  4  2016     4         0.11         30.2          27.7             211
    ##  5  2016     5        29.4          31.1          30.4             742
    ##  6  2016     6        30.4          31.2          30.8             206
    ##  7  2016     7         0.48         31.6          31.4             564
    ##  8  2016     8        30.5          31.9          31.7             744
    ##  9  2016     9        31.8          32.2          32.0             720
    ## 10  2016    10        31.9          32.4          32.2             744
    ## # ℹ 16 more rows

``` r
print(ME1_envrmonth_temp)
```

    ## # A tibble: 26 × 6
    ## # Groups:   year [4]
    ##     year month min_temp max_temp mean_temp length_temp
    ##    <dbl> <dbl>    <dbl>    <dbl>     <dbl>       <int>
    ##  1  2015     9    15.9      17.5     16.6          110
    ##  2  2015    10    10.7      16.6     14.1          334
    ##  3  2015    11     7.31     11.0      9.20         575
    ##  4  2016     4     6.92     17.8      8.55         211
    ##  5  2016     5     7.77     14.7     10.2          742
    ##  6  2016     6    12.9      15.3     14.2          206
    ##  7  2016     7    15.3      20.3     18.0          564
    ##  8  2016     8    17.1      20.6     19.1          744
    ##  9  2016     9    15        19.6     17.6          720
    ## 10  2016    10    11.2      16.1     14.0          744
    ## # ℹ 16 more rows
…
