…
    ## `summarise()` has grouped output by 'year'. You can override using the
    ## `.groups` argument.

``` r
print(NC1_envrmonth)
```

    ## # A tibble: 257 × 10
    ## # Groups:   year [23]
    ##     year month min_salinity max_salinity mean_salinity length_salinity min_temp
    ##    <dbl> <dbl>        <dbl>        <dbl>         <dbl>           <int>    <dbl>
    ##  1  2002     3         11.6         28.4          23.2            1462      5.7
    ##  2  2002     4         20.5         28.1          23.9            1437     13.6
    ##  3  2002     5         25.2         32.8          28.2            1487     14.9
    ##  4  2002     6         27.6         34            31.9            1439     20.7
    ##  5  2002     7         24.5         33.1          30.8            1488     24  
    ##  6  2002     8         27.3         34.1          31.5            1488     22.7
    ##  7  2002     9         24.8         29            26.7            1440     22.8
    ##  8  2002    10         19.2         30.7          24.8            1488     16.7
    ##  9  2002    11         13.2         27.2          19.8            1440      6.5
    ## 10  2002    12          9.9         26.3          18.5            1344      4.5
    ## # ℹ 247 more rows
    ## # ℹ 3 more variables: max_temp <dbl>, mean_temp <dbl>, length_temp <int>
…
print(NC1_envryear)
```

    ## # A tibble: 23 × 7
    ##     year min_salinity max_salinity mean_salinity min_temp max_temp mean_temp
    ##    <dbl>        <dbl>        <dbl>         <dbl>    <dbl>    <dbl>     <dbl>
    ##  1  2002          9.9         34.1          26.0      4.5     34.6      21.9
    ##  2  2003          5.5         25.4          15.8      3.4     39.8      21.0
    ##  3  2004         11.8         29.1          21.8      0.2     34.8      19.4
    ##  4  2005          6.5         28.4          21.3      0       36.6      17.6
    ##  5  2006          4.6         29.1          20.1      2.2     36.8      19.2
    ##  6  2007          0.1         34.9          26.1      0.9     34.8      20.4
    ##  7  2008         11.6         34.5          24.1      0.2     35        20.2
    ##  8  2009          1.2         30.7          22.0      1.1     35        20.0
    ##  9  2010          0.5         35.5          22.6      0       37.3      19.5
    ## 10  2011          7.6         35.9          27.1      0       37.7      20.5
    ## # ℹ 13 more rows
…
