…
    ## `summarise()` has grouped output by 'year'. You can override using the
    ## `.groups` argument.

``` r
print(NH1_envrmonth)
```

    ## # A tibble: 222 × 10
    ## # Groups:   year [27]
    ##     year month min_salinity max_salinity mean_salinity length_salinity min_temp
    ##    <dbl> <dbl>        <dbl>        <dbl>         <dbl>           <int>    <dbl>
    ##  1  1997     7         12           24.5         19.7              499     19.1
    ##  2  1997     8         11.8         27.9         22.5             1430     19.2
    ##  3  1997     9         13.1         26.5         21.6             1312     14.3
    ##  4  1997    10         14.2         27.1         22.7             1327      6.9
    ##  5  1997    11          1.2         23.7         13.2             1307      0.8
    ##  6  1998     4          0.1         14.9          5.16             358      9.3
    ##  7  1998     5          0           21.8          6.00            1429     11.1
    ##  8  1998     6          0           22.1          4.45            1115     15.7
    ##  9  1998     7          0.1         24.4         11.7             1044     19.6
    ## 10  1998     8         13.4         29.9         25.9              873     20.2
    ## # ℹ 212 more rows
    ## # ℹ 3 more variables: max_temp <dbl>, mean_temp <dbl>, length_temp <int>
…
print(NH1_envryear)
```

    ## # A tibble: 27 × 7
    ##     year min_salinity max_salinity mean_salinity min_temp max_temp mean_temp
    ##    <dbl>        <dbl>        <dbl>         <dbl>    <dbl>    <dbl>     <dbl>
    ##  1  1997          1.2         27.9          20.0      0.8     26.6      15.6
    ##  2  1998          0           29.9          16.0      4.8     27        17.1
    ##  3  1999          1.7         30.8          20.8      2.7     28.4      16.5
    ##  4  2000          0           28.5          19.3     10.5     25.6      20.2
    ##  5  2001          1.1         33.9          24.2      4.1     28.3      17.7
    ##  6  2002          0.2         33.8          22.7     -0.2     29        17.0
    ##  7  2003          0.2         29.8          18.2      2.6     27.3      16.8
    ##  8  2004          0.1         29            16.8     -0.7     26.5      15.8
    ##  9  2005          0           30.5          14.3     -0.2     27.3      15.8
    ## 10  2006          0           28.9          13.1      4.1     28.1      16.1
    ## # ℹ 17 more rows
…
