…
## `summarise()` has grouped output by 'year'. You can override using the `.groups` argument.

print(NH1_envrmonth)

## # A tibble: 222 × 10
## # Groups:   year [27]
##     year month min_salinity max_salinity mean_salinity length_salinity min_temp max_temp mean_temp
##    <dbl> <dbl>        <dbl>        <dbl>         <dbl>           <int>    <dbl>    <dbl>     <dbl>
##  1  1997     7         12           24.5         19.7              499     19.1     24.8     22.6 
##  2  1997     8         11.8         27.9         22.5             1430     19.2     26.6     23.0 
##  3  1997     9         13.1         26.5         21.6             1312     14.3     22.3     18.9 
##  4  1997    10         14.2         27.1         22.7             1327      6.9     16.6     12.1 
##  5  1997    11          1.2         23.7         13.2             1307      0.8     11.4      5.09
##  6  1998     4          0.1         14.9          5.16             358      9.3     15       11.1 
##  7  1998     5          0           21.8          6.00            1429     11.1     23.2     16.5 
##  8  1998     6          0           22.1          4.45            1115     15.7     23.3     19.4 
##  9  1998     7          0.1         24.4         11.7             1044     19.6     27       22.8 
## 10  1998     8         13.4         29.9         25.9              873     20.2     25.6     22.5 
## # ℹ 212 more rows
## # ℹ 1 more variable: length_temp <int>
#Calculate the mean, maximum, and minimum values for salinity and temperature for each year. 
NH1_envryear <- NH1 %>%
    mutate(year = year(datetime)) %>%
    group_by(year) %>%
    summarise(
      min_salinity = min(salinity),
      max_salinity = max(salinity),
      mean_salinity = mean(salinity),
      min_temp = min(temp),
      max_temp = max(temp),
      mean_temp = mean(temp))

print(NH1_envryear)

## # A tibble: 27 × 7
##     year min_salinity max_salinity mean_salinity min_temp max_temp mean_temp
##    <dbl>        <dbl>        <dbl>         <dbl>    <dbl>    <dbl>     <dbl>
##  1  1997          1.2         27.9          20.0      0.8     26.6      15.6
##  2  1998          0           29.9          16.0      4.8     27        17.1
##  3  1999          1.7         30.8          20.8      2.7     28.4      16.5
##  4  2000          0           28.5          19.3     10.5     25.6      20.2
##  5  2001          1.1         33.9          24.2      4.1     28.3      17.7
##  6  2002          0.2         33.8          22.7     -0.2     29        17.0
##  7  2003          0.2         29.8          18.2      2.6     27.3      16.8
##  8  2004          0.1         29            16.8     -0.7     26.5      15.8
##  9  2005          0           30.5          14.3     -0.2     27.3      15.8
## 10  2006          0           28.9          13.1      4.1     28.1      16.1
## # ℹ 17 more rows
…
