…
``` r
View(raw_NJ1)
```

### Start with the date and time of collection. We will use the lubridate package to standardize all values into the date-time format called POSIXct. This format stores the date and time in number of seconds since a past point (1/1/1970). This makes comparisons easy and helps to standardizes values.

``` r
#Convert to POSIXct format. Store it into a column named datetime in the data frame. Use the year-month-day hours:minutes:seconds format. 
raw_NJ1$datetime <- as.POSIXct(raw_NJ1$timestamp, format = "%z-%m-%d %I:%M:%S")

#Print the new data frame and examine to make sure the new datetime column is in the correct format. 
print(raw_NJ1)
```

    ## # A tibble: 154 × 39
    ##    station_id  timestamp           water_temp_result_type water_temp_detection…¹
    ##    <chr>       <dttm>              <chr>                  <chr>                 
    ##  1 31DELRBC_W… 2010-03-22 07:05:00 Actual                 Detected              
    ##  2 31DELRBC_W… 2010-10-25 08:50:00 Actual                 Detected              
    ##  3 31DELRBC_W… 2010-05-25 07:34:00 Actual                 Detected              
    ##  4 31DELRBC_W… 2010-08-30 08:18:00 Actual                 Detected              
    ##  5 31DELRBC_W… 2010-06-22 07:22:00 Actual                 Detected              
    ##  6 31DELRBC_W… 2010-07-20 07:44:00 Actual                 Detected              
    ##  7 31DELRBC_W… 2010-04-20 06:33:00 Actual                 Detected              
    ##  8 31DELRBC_W… 2010-09-27 10:03:00 Actual                 Detected              
    ##  9 31DELRBC_W… 2011-08-22 09:42:00 Actual                 Detected              
    ## 10 31DELRBC_W… 2011-09-14 08:42:00 Actual                 Detected              
    ## # ℹ 144 more rows
    ## # ℹ abbreviated name: ¹​water_temp_detection_condition
    ## # ℹ 35 more variables: water_temp_value <dbl>, water_temp_units <chr>,
    ## #   ph_result_type <chr>, ph_detection_condition <chr>, ph_value <dbl>,
    ## #   ph_units <chr>, salinity_result_type <chr>,
    ## #   salinity_detection_condition <chr>, salinity_value <dbl>,
    ## #   salinity_units <chr>, nutrient_nitrogen_result_type <chr>, …
…
    ## `summarise()` has grouped output by 'year'. You can override using the
    ## `.groups` argument.

``` r
print(NJ1_envrmonth)
```

    ## # A tibble: 135 × 10
    ## # Groups:   year [18]
    ##     year month min_salinity max_salinity mean_salinity length_salinity min_temp
    ##    <dbl> <dbl>        <dbl>        <dbl>         <dbl>           <int>    <dbl>
    ##  1  2005     4         10.2         11.3          10.7               2     7.71
    ##  2  2005     5         20.1         23.4          21.7               2    12.8 
    ##  3  2005     6         20.5         24.8          22.6               2    22.3 
    ##  4  2005     7         21.9         21.9          21.9               1    24.7 
    ##  5  2005     8         23.3         25.9          24.6               2    25.4 
    ##  6  2005     9         22.1         24.1          23.1               2    22.6 
    ##  7  2005    10         22.9         22.9          22.9               1    13.9 
    ##  8  2006     3         24.8         24.8          24.8               1     6.38
    ##  9  2006     4         24.1         26.0          25.0               2     9.23
    ## 10  2006     5         22.9         24.0          23.4               2    14.4 
    ## # ℹ 125 more rows
    ## # ℹ 3 more variables: max_temp <dbl>, mean_temp <dbl>, length_temp <int>
…
