…
``` r
View(raw_NJ2)
```

### Start with the date and time of collection. We will use the lubridate package to standardize all values into the date-time format called POSIXct. This format stores the date and time in number of seconds since a past point (1/1/1970). This makes comparisons easy and helps to standardizes values.

``` r
#Convert to POSIXct format. Store it into a column named datetime in the data frame. Use the year-month-day hours:minutes:seconds format. 
raw_NJ2$datetime <- as.POSIXct(raw_NJ2$timestamp, format = "%z-%m-%d %I:%M:%S")

#Print the new data frame and examine to make sure the new datetime column is in the correct format. 
print(raw_NJ2)
```

    ## # A tibble: 153 × 39
    ##    station_id         timestamp           tss_result_type tss_detection_condit…¹
    ##    <chr>              <dttm>              <chr>           <chr>                 
    ##  1 31DELRBC_WQX-0910… 2010-04-20 08:37:00 Actual          Detected              
    ##  2 31DELRBC_WQX-0910… 2010-09-27 08:35:00 Actual          Detected              
    ##  3 31DELRBC_WQX-0910… 2010-08-30 08:36:00 Actual          Detected              
    ##  4 31DELRBC_WQX-0910… 2010-06-22 00:00:00 Actual          Detected              
    ##  5 31DELRBC_WQX-0910… 2010-10-25 08:30:00 Actual          Detected              
    ##  6 31DELRBC_WQX-0910… 2010-03-22 08:37:00 Actual          Detected              
    ##  7 31DELRBC_WQX-0910… 2010-05-25 08:33:00 Actual          Detected              
    ##  8 31DELRBC_WQX-0910… 2010-07-20 10:43:00 Actual          Detected              
    ##  9 31DELRBC_WQX-0910… 2011-06-21 08:39:00 Actual          Detected              
    ## 10 31DELRBC_WQX-0910… 2011-05-24 08:58:00 Actual          Detected              
    ## # ℹ 143 more rows
    ## # ℹ abbreviated name: ¹​tss_detection_condition
    ## # ℹ 35 more variables: tss_value <dbl>, tss_units <chr>,
    ## #   salinity_result_type <chr>, salinity_detection_condition <chr>,
    ## #   salinity_value <dbl>, salinity_units <chr>, water_temp_result_type <chr>,
    ## #   water_temp_detection_condition <chr>, water_temp_value <dbl>,
    ## #   water_temp_units <chr>, enterococcus_result_type <chr>, …
…
    ## `summarise()` has grouped output by 'year'. You can override using the
    ## `.groups` argument.

``` r
print(NJ2_envrmonth)
```

    ## # A tibble: 136 × 10
    ## # Groups:   year [18]
    ##     year month min_salinity max_salinity mean_salinity length_salinity min_temp
    ##    <dbl> <dbl>        <dbl>        <dbl>         <dbl>           <int>    <dbl>
    ##  1  2005     4         0.12         3.27          1.70               2     7.81
    ##  2  2005     5         3.44         6.1           4.77               2    15.0 
    ##  3  2005     6         6.6          9.36          7.98               2    24.5 
    ##  4  2005     7         7.74         7.74          7.74               1    25.3 
    ##  5  2005     8         7.72         8.01          7.86               2    27.0 
    ##  6  2005     9         9.36         9.78          9.57               2    22.4 
    ##  7  2005    10         7.55         7.55          7.55               1    12.6 
    ##  8  2006     3         9.67         9.67          9.67               1     6.39
    ##  9  2006     4         9.63        11.6          10.6                2    10.5 
    ## 10  2006     5         6.44         9.75          8.10               2    17.2 
    ## # ℹ 126 more rows
    ## # ℹ 3 more variables: max_temp <dbl>, mean_temp <dbl>, length_temp <int>
…
