…
    ## `summarise()` has grouped output by 'year'. You can override using the
    ## `.groups` argument.

``` r
print(RI1_envrmonth_sal)
```

    ## # A tibble: 48 × 6
    ## # Groups:   year [8]
    ##     year month min_salinity max_salinity mean_salinity length_salinity
    ##    <dbl> <dbl>        <dbl>        <dbl>         <dbl>           <int>
    ##  1  2014     5          8.5         23.5          14.3              16
    ##  2  2014     6         12           21.5          14.9               8
    ##  3  2014     7         11.5         18.5          14.9              10
    ##  4  2014     8         15.5         22            19.8              24
    ##  5  2014     9         17.5         25            23.6              16
    ##  6  2014    10         25           27            25.8               8
    ##  7  2015     5         17           25            20.1               7
    ##  8  2015     6         17.8         21.2          20.0               7
    ##  9  2015     7         16.5         20.5          18.9               6
    ## 10  2015     8         17           23            19.9              12
    ## # ℹ 38 more rows

``` r
print(RI1_envrmonth_temp)
```

    ## # A tibble: 47 × 6
    ## # Groups:   year [8]
    ##     year month min_temp max_temp mean_temp length_temp
    ##    <dbl> <dbl>    <dbl>    <dbl>     <dbl>       <int>
    ##  1  2014     5     12       19        15.9           9
    ##  2  2014     6     19.5     21        20.6           5
    ##  3  2014     7     23.5     26        24.5          10
    ##  4  2014     8     23       27        24.2          14
    ##  5  2014     9     19.5     22.5      20.6          10
    ##  6  2014    10     16.5     19        17.6           5
    ##  7  2015     5     14.9     20.4      17.7          10
    ##  8  2015     6     18       22.5      20.6          10
    ##  9  2015     7     23       25.5      24.9           8
    ## 10  2015     8     24       28.5      27.0          14
    ## # ℹ 37 more rows
…
