…
    ## `summarise()` has grouped output by 'year'. You can override using the
    ## `.groups` argument.

``` r
print(RI2_envrmonth)
```

    ## # A tibble: 242 × 10
    ## # Groups:   year [22]
    ##     year month min_salinity max_salinity mean_salinity length_salinity min_temp
    ##    <dbl> <dbl>        <dbl>        <dbl>         <dbl>           <int>    <dbl>
    ##  1  2002     7         24.2         32.2          31.4            1368     16.7
    ##  2  2002     8         29.2         32.3          31.4            1488     19.6
    ##  3  2002     9         29.8         32.4          31.9            1440     19.2
    ##  4  2002    10         31           32.2          31.6            1487     12.6
    ##  5  2002    11         29.8         32.2          30.9             576      7.3
    ##  6  2002    12         29           32.2          30.8            1487      4.3
    ##  7  2003     1         29.1         33.3          30.8            1487     -0.6
    ##  8  2003     2         29.8         33.5          31.8             892     -0.4
    ##  9  2003     3         27.6         32.4          30.7            1487      0.5
    ## 10  2003     4         27.7         32.3          30.3            1437      3.3
    ## # ℹ 232 more rows
    ## # ℹ 3 more variables: max_temp <dbl>, mean_temp <dbl>, length_temp <int>
…
print(RI2_envryear)
```

    ## # A tibble: 22 × 7
    ##     year min_salinity max_salinity mean_salinity min_temp max_temp mean_temp
    ##    <dbl>        <dbl>        <dbl>         <dbl>    <dbl>    <dbl>     <dbl>
    ##  1  2002         24.2         32.4          31.3      4.3     24.7      16.4
    ##  2  2003         27           33.5          30.7     -0.6     25.1      10.3
    ##  3  2004         25.5         32.7          30.8     -1       23.3      13.6
    ##  4  2005         25.3         32.6          30.0      0.4     24.8      11.5
    ##  5  2006         21.9         31.9          30.0      2.3     25.1      12.8
    ##  6  2007          0.1         32.6          30.4      0.7     24.4      12.5
    ##  7  2008         25           33            29.7      2       24.8      12.2
    ##  8  2009         19.1         33.3          30.2      1.2     23.9      11.3
    ##  9  2010         20.2         34.7          30.9      0.8     24.3      12.0
    ## 10  2011         24.8         36.2          30.0      0.7     24.4      11.7
    ## # ℹ 12 more rows
…
