…
    ## `summarise()` has grouped output by 'year'. You can override using the
    ## `.groups` argument.

``` r
print(SC1_envrmonth_sal)
```

    ## # A tibble: 25 × 6
    ## # Groups:   year [3]
    ##     year month min_salinity max_salinity mean_salinity length_salinity
    ##    <dbl> <dbl>        <dbl>        <dbl>         <dbl>           <int>
    ##  1  2020     8           11           33          22.9            1501
    ##  2  2020     9           13           32          24.0            2137
    ##  3  2020    10           12           33          22.7            2967
    ##  4  2020    11           16           30          22.5            2872
    ##  5  2020    12           18           32          23.7            2973
    ##  6  2021     1           17           30          23.6            2971
    ##  7  2021     2           14           29          21.3            2688
    ##  8  2021     3           16           30          21.2            2974
    ##  9  2021     4           19           31          24.0            2871
    ## 10  2021     5           18           32          24.1            2971
    ## # ℹ 15 more rows

``` r
print(SC1_envrmonth_temp)
```

    ## # A tibble: 179 × 6
    ## # Groups:   year [16]
    ##     year month min_temp max_temp mean_temp length_temp
    ##    <dbl> <dbl>    <dbl>    <dbl>     <dbl>       <int>
    ##  1  2007    10     19.9     26.8      24.5        1473
    ##  2  2007    11     15       21.1      17.1        1408
    ##  3  2007    12     12.9     16.6      14.5        1378
    ##  4  2008     1      9.1     14.4      11.3        1385
    ##  5  2008     2     10.2     14.8      13.0        1388
    ##  6  2008     3     13.1     17.9      15.7        1486
    ##  7  2008     4     15.9     21.5      18.9        1437
    ##  8  2008     5     20.3     25.6      23.3        1488
    ##  9  2008     6     25       29.9      28.0        1436
    ## 10  2008     7     27.8     30.2      28.8        1486
    ## # ℹ 169 more rows
…
