…
### Start with the date and time of collection. We will use the lubridate package to standardize all values into the date-time format called POSIXct. This format stores the date and time in number of seconds since a past point (1/1/1970). This makes comparisons easy and helps to standardizes values.

``` r
combined_datetime <- paste(raw_SC2$collection_date, raw_SC2$collection_time)

#Convert to POSIXct format. Store it into a column named datetime in the data frame. Use the year-month-day hours:minutes:seconds format. 
raw_SC2$datetime <- as.POSIXct(combined_datetime, format = "%Y-%m-%d %H:%M:%S")

#Print the new data frame and examine to make sure the new datetime column is in the correct format. 
print(raw_SC2)
```

    ## # A tibble: 326 × 10
    ##    lab_sample_id site_id site_name            latitude longitude collection_date
    ##    <chr>           <dbl> <chr>                   <dbl>     <dbl> <date>         
    ##  1 VM_MI_08_0012       8 Oyster Landing Beach     33.5     -79.1 2008-06-10     
    ##  2 VM_MI_08_0020       8 Oyster Landing Beach     33.5     -79.1 2008-06-24     
    ##  3 VM_MI_08_0028       8 Oyster Landing Beach     33.5     -79.1 2008-07-08     
    ##  4 VM_MI_08_0036       8 Oyster Landing Beach     33.5     -79.1 2008-07-22     
    ##  5 VM_MI_08_0044       8 Oyster Landing Beach     33.5     -79.1 2008-08-12     
    ##  6 VM_MI_08_0052       8 Oyster Landing Beach     33.5     -79.1 2008-08-26     
    ##  7 VM_MI_08_0060       8 Oyster Landing Beach     33.5     -79.1 2008-09-09     
    ##  8 VM_MI_08_0068       8 Oyster Landing Beach     33.5     -79.1 2008-09-23     
    ##  9 VM_MI_08_0076       8 Oyster Landing Beach     33.5     -79.1 2008-10-14     
    ## 10 VM_MI_08_0084       8 Oyster Landing Beach     33.5     -79.1 2008-10-28     
    ## # ℹ 316 more rows
    ## # ℹ 4 more variables: collection_time <time>, salinity_ppt <dbl>,
    ## #   temp_do <dbl>, datetime <dttm>
…
    ## `summarise()` has grouped output by 'year'. You can override using the
    ## `.groups` argument.

``` r
print(SC2_envrmonth)
```

    ## # A tibble: 167 × 10
    ## # Groups:   year [15]
    ##     year month min_salinity max_salinity mean_salinity length_salinity min_temp
    ##    <dbl> <dbl>        <dbl>        <dbl>         <dbl>           <int>    <dbl>
    ##  1  2008     6         34.7         34.9          34.8               2    28.1 
    ##  2  2008     7         34.7         35.5          35.1               2    28.2 
    ##  3  2008     8         33.7         36.1          34.9               2    28.0 
    ##  4  2008     9         33.3         35.1          34.2               2    21.7 
    ##  5  2008    10         34.5         34.5          34.5               2    15   
    ##  6  2008    11         34.3         34.8          34.5               2    13.8 
    ##  7  2008    12         34.2         34.5          34.3               2    11.9 
    ##  8  2009     1         33.7         33.7          33.7               2     9.27
    ##  9  2009     2         33.3         34.3          33.8               2     9.1 
    ## 10  2009     3         33.2         33.8          33.5               2    12.7 
    ## # ℹ 157 more rows
    ## # ℹ 3 more variables: max_temp <dbl>, mean_temp <dbl>, length_temp <int>
…
