…
``` r
# The data is stored in month-day-yearXX hours(12):minutes format

#Convert to POSIXct format. Store it into a column named datetime in the data frame.
raw_TX2$datetime <- as.POSIXct(raw_TX2$DateTimeStamp, "%m/%d/%y %H:%M", tz = "")

#Print the new data frame and examine to make sure the new datetime column is in the correct format. 
print(raw_TX2)
```

    ## # A tibble: 523,354 × 31
    ##    Station_Code isSWMP DateTimeStamp Historical ProvisionalPlus F_Record  Temp
    ##    <chr>        <chr>  <chr>              <dbl>           <dbl> <chr>    <dbl>
    ##  1 marcwwq      P      7/11/07 9:30           1               1 <NA>      29.3
    ##  2 marcwwq      P      7/11/07 9:45           1               1 <NA>      29.3
    ##  3 marcwwq      P      7/11/07 10:00          1               1 <NA>      29.4
    ##  4 marcwwq      P      7/11/07 10:15          1               1 <NA>      29.4
    ##  5 marcwwq      P      7/11/07 10:30          1               1 <NA>      29.5
    ##  6 marcwwq      P      7/11/07 10:45          1               1 <NA>      29.6
    ##  7 marcwwq      P      7/11/07 11:00          1               1 <NA>      29.6
    ##  8 marcwwq      P      7/11/07 11:15          1               1 <NA>      29.7
    ##  9 marcwwq      P      7/11/07 11:30          1               1 <NA>      29.7
    ## 10 marcwwq      P      7/11/07 11:45          1               1 <NA>      29.7
    ## # ℹ 523,344 more rows
    ## # ℹ 24 more variables: F_Temp <chr>, SpCond <dbl>, F_SpCond <chr>, Sal <dbl>,
    ## #   F_Sal <chr>, DO_pct <dbl>, F_DO_pct <chr>, DO_mgl <dbl>, F_DO_mgl <chr>,
    ## #   Depth <dbl>, F_Depth <chr>, cDepth <dbl>, F_cDepth <chr>, Level <dbl>,
    ## #   F_Level <chr>, cLevel <dbl>, F_cLevel <chr>, pH <dbl>, F_pH <chr>,
    ## #   Turb <dbl>, F_Turb <chr>, ChlFluor <dbl>, F_ChlFluor <chr>, datetime <dttm>
…
    ## `summarise()` has grouped output by 'year'. You can override using the
    ## `.groups` argument.

``` r
print(TX2_envrmonth)
```

    ## # A tibble: 181 × 10
    ## # Groups:   year [17]
    ##     year month min_salinity max_salinity mean_salinity length_salinity min_temp
    ##    <dbl> <dbl>        <dbl>        <dbl>         <dbl>           <int>    <dbl>
    ##  1  2007     7          0.1          2.7          1.08            1978     24.9
    ##  2  2007     8          0.2          3            1.49            2975     28.5
    ##  3  2007     9          1.3          3.5          2.49            2710     27.7
    ##  4  2007    10          2.8          3.8          3.16            2841     17.9
    ##  5  2007    11          3.6          6.3          4.40            2879     11.6
    ##  6  2007    12          5.3          6.7          6.06            2975     13  
    ##  7  2008     1          6.5          9.6          8.37            2975      9  
    ##  8  2008     2          8.5         10.2          9.39            2784     12.9
    ##  9  2008     3          9.6         12.4         10.8             2972     12.9
    ## 10  2008     4          9.9         14.6         12.9             2879     20.1
    ## # ℹ 171 more rows
    ## # ℹ 3 more variables: max_temp <dbl>, mean_temp <dbl>, length_temp <int>
…
