…
## `summarise()` has grouped output by 'year'. You can override using the `.groups` argument.

print(TX2_envrmonth)

## # A tibble: 181 × 10
## # Groups:   year [17]
##     year month min_salinity max_salinity mean_salinity length_salinity min_temp max_temp mean_temp
##    <dbl> <dbl>        <dbl>        <dbl>         <dbl>           <int>    <dbl>    <dbl>     <dbl>
##  1  2007     7          0.1          2.7          1.08            1978     24.9     31.2      28.8
##  2  2007     8          0.2          3            1.49            2975     28.5     33.2      30.6
##  3  2007     9          1.3          3.5          2.49            2710     27.7     31.4      29.4
##  4  2007    10          2.8          3.8          3.16            2841     17.9     30        25.4
##  5  2007    11          3.6          6.3          4.40            2879     11.6     24.6      19.8
##  6  2007    12          5.3          6.7          6.06            2975     13       22.8      16.6
##  7  2008     1          6.5          9.6          8.37            2975      9       18.3      13.0
##  8  2008     2          8.5         10.2          9.39            2784     12.9     21.7      17.8
##  9  2008     3          9.6         12.4         10.8             2972     12.9     24.2      19.0
## 10  2008     4          9.9         14.6         12.9             2879     20.1     26.1      23.3
## # ℹ 171 more rows
## # ℹ 1 more variable: length_temp <int>
…
