…
    ## `summarise()` has grouped output by 'year'. You can override using the
    ## `.groups` argument.

``` r
print(VA1_envrmonth_sal)
```

    ## # A tibble: 69 × 6
    ## # Groups:   year [14]
    ##     year month min_salinity max_salinity mean_salinity length_salinity
    ##    <dbl> <dbl>        <dbl>        <dbl>         <dbl>           <int>
    ##  1  2010     6          9.9         16.8          13.7               3
    ##  2  2010     7         16           20.6          18.0               5
    ##  3  2010     8         18.6         21.1          19.6               4
    ##  4  2010     9         18           19.9          19.2               3
    ##  5  2011     6          9.8         14.6          11.8               5
    ##  6  2011     7         12.4         15.9          13.7               3
    ##  7  2011     8         15.6         18.9          17.2               4
    ##  8  2011     9          9           15.8          12.5               5
    ##  9  2012     5         13.3         13.3          13.3               1
    ## 10  2012     6         11           17.4          13.7               4
    ## # ℹ 59 more rows

``` r
print(VA1_envrmonth_temp)
```

    ## # A tibble: 69 × 6
    ## # Groups:   year [14]
    ##     year month min_temp max_temp mean_temp length_temp
    ##    <dbl> <dbl>    <dbl>    <dbl>     <dbl>       <int>
    ##  1  2010     6     25.6     29.1      27.3           3
    ##  2  2010     7     27       28.4      27.9           5
    ##  3  2010     8     26.6     29.1      27.7           4
    ##  4  2010     9     24.3     27.9      25.9           3
    ##  5  2011     6     24.8     26.6      26             5
    ##  6  2011     7     27.4     28.4      27.9           3
    ##  7  2011     8     26.1     29        27.7           4
    ##  8  2011     9     23.2     26.3      24.8           5
    ##  9  2012     5     24       24        24             1
    ## 10  2012     6     22.6     25.8      24.6           4
    ## # ℹ 59 more rows
…
