…
    ## `summarise()` has grouped output by 'year'. You can override using the
    ## `.groups` argument.

``` r
print(VA2_envrmonth_sal)
```

    ## # A tibble: 69 × 6
    ## # Groups:   year [14]
    ##     year month min_salinity max_salinity mean_salinity length_salinity
    ##    <dbl> <dbl>        <dbl>        <dbl>         <dbl>           <int>
    ##  1  2010     6          4.7          8.8          7.3                4
    ##  2  2010     7         10.1         12           10.9                5
    ##  3  2010     8         12.4         14.6         13.3                4
    ##  4  2010     9         13.3         14.2         13.7                3
    ##  5  2011     6          2.4          7.5          5.56               5
    ##  6  2011     7          6.4          7.3          6.93               3
    ##  7  2011     8          9.8         11           10.6                4
    ##  8  2011     9          4.3         10            6.96               5
    ##  9  2012     5          3.9          3.9          3.9                1
    ## 10  2012     6          6            7.1          6.45               4
    ## # ℹ 59 more rows

``` r
print(VA2_envrmonth_temp)
```

    ## # A tibble: 70 × 6
    ## # Groups:   year [14]
    ##     year month min_temp max_temp mean_temp length_temp
    ##    <dbl> <dbl>    <dbl>    <dbl>     <dbl>       <int>
    ##  1  2010     6     25.4     29.6      27.2           8
    ##  2  2010     7     27.9     29.2      28.6          10
    ##  3  2010     8     27.2     29.5      28.2           8
    ##  4  2010     9     24.7     28.1      26.1           6
    ##  5  2011     6     26.5     27.2      26.9          10
    ##  6  2011     7     27       28.9      28.2           6
    ##  7  2011     8     27.2     29.8      28.4           8
    ##  8  2011     9     23.7     26.4      25.1          10
    ##  9  2012     5     25.1     25.1      25.1           2
    ## 10  2012     6     23.3     26.4      25.2           8
    ## # ℹ 60 more rows
…
