…
    ## `summarise()` has grouped output by 'year'. You can override using the
    ## `.groups` argument.

``` r
print(VA3_envrmonth)
```

    ## # A tibble: 56 × 10
    ## # Groups:   year [7]
    ##     year month min_salinity max_salinity mean_salinity length_salinity min_temp
    ##    <dbl> <dbl>        <dbl>        <dbl>         <dbl>           <int>    <dbl>
    ##  1  2016     6        29.5          33.4          31.9            2712   19.7  
    ##  2  2016     7         7.65         32.4          29.8            2976   22.2  
    ##  3  2016     8        30.4          33.3          32.2            1189   24.7  
    ##  4  2016     9        28.0          33.4          32.0            1366   21.7  
    ##  5  2016    10        14.4          31.4          28.6            2974   12.5  
    ##  6  2016    11        29.6          32.3          31.6            2880    4.40 
    ##  7  2016    12        27.0          32.3          31.0            2117    0.687
    ##  8  2017     1        24.6          32.0          30.1            2785    0.003
    ##  9  2017     2        23.3          32.0          30.8            2688    1.75 
    ## 10  2017     3        27.7          33.3          32.2            2967    0.142
    ## # ℹ 46 more rows
    ## # ℹ 3 more variables: max_temp <dbl>, mean_temp <dbl>, length_temp <int>
…
