…
    ## `summarise()` has grouped output by 'year'. You can override using the
    ## `.groups` argument.

``` r
print(TX2_envrmonth)
```

    ## # A tibble: 181 × 10
    ## # Groups:   year [17]
    ##     year month min_salinity max_salinity mean_salinity length_salinity min_temp
    ##    <dbl> <dbl>        <dbl>        <dbl>         <dbl>           <int>    <dbl>
    ##  1  2007     7          0.1          2.7          1.08            1978     24.9
    ##  2  2007     8          0.2          3            1.49            2975     28.5
    ##  3  2007     9          1.3          3.5          2.49            2710     27.7
    ##  4  2007    10          2.8          3.8          3.16            2841     17.9
    ##  5  2007    11          3.6          6.3          4.40            2879     11.6
    ##  6  2007    12          5.3          6.7          6.06            2975     13  
    ##  7  2008     1          6.5          9.6          8.37            2975      9  
    ##  8  2008     2          8.5         10.2          9.39            2784     12.9
    ##  9  2008     3          9.6         12.4         10.8             2972     12.9
    ## 10  2008     4          9.9         14.6         12.9             2879     20.1
    ## # ℹ 171 more rows
    ## # ℹ 3 more variables: max_temp <dbl>, mean_temp <dbl>, length_temp <int>
…
